<?xml version="1.0" standalone="no"?>
<!DOCTYPE svg PUBLIC "-//W3C//DTD SVG 20010904//EN"
 "http://www.w3.org/TR/2001/REC-SVG-20010904/DTD/svg10.dtd">
<svg version="1.0" xmlns="http://www.w3.org/2000/svg"
 width="1123.000000pt" height="1123.000000pt" viewBox="0 0 1123.000000 1123.000000"
 preserveAspectRatio="xMidYMid meet">
<metadata>
Created by potrace 1.11, written by Peter Selinger 2001-2013
</metadata>
<g transform="translate(0.000000,1123.000000) scale(0.100000,-0.100000)"
fill="#000000" stroke="none">
<path d="M6075 8384 l0 -404 -35 -1 c-19 0 -830 -1 -1802 -1 -1288 -1 -1768
-4 -1771 -12 -3 -10 -2 -742 2 -757 0 -3 600 -5 1332 -5 732 1 1336 -2 1342
-6 7 -4 11 -731 11 -2470 l1 -2463 453 0 c250 0 457 2 461 5 4 3 7 1288 6
2855 l0 2850 1363 0 c900 0 1362 3 1363 10 4 33 3 165 -1 165 -3 0 -6 66 -6
148 -1 81 -3 220 -5 309 l-4 163 -90 0 c-49 1 -371 3 -715 5 -344 3 -913 7
-1265 9 l-640 4 0 -404z"/>
</g>
</svg>
